%YAML 1.1
%TAG !u! tag:unity3d.com,2011:
--- !u!114 &11400000
MonoBehaviour:
  m_ObjectHideFlags: 4
  m_PrefabParentObject: {fileID: 0}
  m_PrefabInternal: {fileID: 0}
  m_GameObject: {fileID: 0}
  m_Enabled: 1
  m_EditorHideFlags: 0
  m_Script: {fileID: 11500000, guid: 29fa657c12e6aef458666dcd6e86777b, type: 3}
  m_Name: TileSet
  m_EditorClassIdentifier: 
  prefabs:
  - {fileID: 4803335253813214, guid: fd2680b7e59dbe64fa1016d3abb6fbdb, type: 2}
  - {fileID: 4050857867492948, guid: 6a91f90752ba7e940b11f67e0edcb41e, type: 2}
  - {fileID: 4000010426162340, guid: ab41f5d705615de4ab092ad01946c819, type: 2}
  - {fileID: 4000014189746172, guid: 801fbc4a71cf58d40b8caad37be85634, type: 2}
